{"items":[{"id":"5d398a28-519e-11f0-a065-d549be31d974","title":"Бригадир монтажников (участок металлоконструкций)","company":"ООО СК \"ИНТЕРПОЛ\"","company_logo":null,"company_url":"https://trudvsem.ru/company/1077451024200","location":"Челябинская область, Челябинская область, г Челябинск, Нахимова улица, дом 2 корпус а, место работы - Хабаровский край, Нанайский район, с.Малмыж, строительство \"Малмыжского ГОКа\"","salary":"168 000 – 181 000 руб.","url":"https://trudvsem.ru/vacancy/card/1077451024200/5d398a28-519e-11f0-a065-d549be31d974","description":"Руководство бригадой монтажников на строительном объекте (участок металлоконструкций); Контроль проведения и качества выполненных работ. Опыт работы монтажником, бригадиром; Умение работать с технической и конструкторской документацией, чтение чертежей.","source":"Роструд","published_at":"2026-06-22","employment":"","schedule":"Вахтовый метод","experience":"Опыт 3 года","contacts":{"person":"Кодулева Екатерина Игоревна","phones":["+7(912) 790-03-09"],"emails":["kadry-interpol@mail.ru","interpol-urist@mail.ru"]}},{"id":"evahta_0fe6d21a","title":"з/плата от 120 000 - 180 000 руб. Ученик монтажника","company":"Вахта ру Барнаулмеханомонтаж Нам требуются: Монтажник металлоконструкций и трубопроводов","company_logo":null,"company_url":"","location":"","salary":"от 120 000 - 180 000 руб.","url":"https://evahta.ru/?vahta=vacancy&vacancy=18/1015","description":"з/плата от 120 000 - 180 000 руб. Ученик монтажника з/плата от 90 000 руб. Подсобный рабочий з/плата 100 000+7-923-641-1973","source":"еВахта","published_at":"","employment":"Вахта","schedule":"","experience":"","contacts":{"person":"","phones":["+7-923-641-1973"],"emails":[]}},{"id":"sj_51984030","title":"Монтажник по монтажу стальных и железобетонных конструкций","company":"","company_logo":null,"company_url":"","location":"Поселок имени Морозова","salary":"170 000 – 180 000 руб.","url":"https://spb.superjob.ru/vakansii/montazhnik-po-montazhu-stalnyh-i-zhelezobetonnyh-konstrukcij-51984030.html","description":"ООО «ПЕРВЫЙ СТРОИТЕЛЬНЫЙ ТРЕСТ» - генеральный подрядчик по строительству и реконструкции объектов Министерства обороны РФ В связи с организацией новых объектов строительства приглашаем в нашу команду Монтажников ЖБК. Обязанности: • Монтаж, демонтаж строительных металлоконструкций Требования: • Среднее профессиональное образование; • Наличие квалификационного удостоверения 4,5 разрядов • Опыт работы от 3х лет; • Допуск для работы на высоте • Умение работать в коллективе • Ответственность • Грaжданство РФ - стрoгo! Условия: • оформление по ТК РФ; • Заработная плата без задержек 10 и 25 числа; • оплата и проживания для иногородних; • 10 часовой рабочий день.","source":"SuperJob","published_at":"2026-06-18","employment":"Полный рабочий день","schedule":"","experience":"От 1 года","contacts":{"person":"","phones":["+7 (991) 58069XX"],"emails":[]}},{"id":"78a7403e-f8e9-11ef-808b-cb26dff57dd7","title":"монтажник металлоконструкций","company":"ООО \"ЛЕВ СТРОЙ\"","company_logo":null,"company_url":"https://trudvsem.ru/company/5157746131989","location":"Вологодская область, Вологодская область, г. Череповец, ОАО Северсталь территория, 1, ПАО \"Северсталь\": \"10/06245.\" ПАО \"Северсталь\". КАДП. Комплекс цеха по производству окатышей. Центральный узел.","salary":"66 000 – 70 000 руб.","url":"https://trudvsem.ru/vacancy/card/5157746131989/78a7403e-f8e9-11ef-808b-cb26dff57dd7","description":"монтажник металлоконструкций должен знать: правила транспортировки и складирования конструкций и изделий; способы проверки плотности сварных швов; основные свойства и марки бетонных смесей и строительных сталей; основные виды такелажной оснастки, стропов, узлов, монтажного оборудования и захватных приспособлений; способы строповки строительных конструкций и их расстроповки; правила и способы выполнения такелажных работ; способы крепления конструкций с применением приспособлений; методы подбора стальных канатов для такелажных работ, способы их смазки и крепления болтовыми зажимами, сроки износа; правила сигнализации при монтаже; основные виды стальных, сборных бетонных и железобетонных конструкций, виды их деталей и способы их монтажа и демонтажа; правила подготовки поверхностей для изоляции; способы защиты металла от коррозии; способы монтажа труб и футеровки вращающихся печей из блоков жаростойкого бетона; способы установки и крепления панелей, футерованных жаростойким бетоном, и крупных блоков; кандидат имеющий начальное профессиональное образование и соответствующий опыт работы не менее 1 года","source":"Роструд","published_at":"2026-06-03","employment":"","schedule":"Сменная работа","experience":"Опыт 1 год","contacts":{"person":"Хисамутдинова Аниса","phones":["9777700848"],"emails":["info@levstroy.com","nletyagina@estacons.ru"]}},{"id":"sj_52009302","title":"Ученик монтажника металлоконструкций","company":"","company_logo":null,"company_url":"","location":"Балаково","salary":"от 100 000 руб.","url":"https://balakovo.superjob.ru/vakansii/uchenik-montazhnika-metallokonstrukcij-52009302.html","description":"Вакансия компании ООО \"РСМ\" Общая производственная площадь заводской территории составляет более 5000 м2 без учета площадей, где располагаются склады. В 2019 году в эксплуатацию были введены новые производственные мощности, полностью оснащенные современным оборудованием от известных европейских производителей. Кредо нашего предприятия – высокое качество, поэтому любая производственная операция, включая отгрузку готового оборудования, происходит с учетом требований всех видов стандартов и снабжается разработанной для этих целей технологической картой. Подобные карты позволяют производить строгий контроль на всех уровнях не только за производственным процессом в целом, но и за каждым его этапом. Производство резервуаров на нашем предприятии, благодаря масштабной оптимизации технологических линий и наличию собственных отгрузочных и покрасочных цехов, происходит в максимально сжатые сроки без потери качества. Завод ООО «РезервуарСтройМаш» включает в себя следующие цеха: Подготовки производства; Механической обработки; По изготовлению резервуаров РГС, ЕП; По изготовлению резервуаров СУГ, Сепараторов, Воздухосборников; По изготовлению резервуаров РВС, БАГВ; По изготовлению металлоконструкций ангаров, цехов и т.д. Обработки, с участком нанесения покрытий, а также участками дробеструйной и пескоструйной обработки; Участок комплектации готовой продукции; Отдельно выделенные отделы и цеха нашего предприятия несут ответственность непосредственно за свой сегмент производственных задач, благодаря чему оптимизируется производственный процесс и повышается качество работы. Обязанности: - Сборка и монтаж металлоконструкций на производстве. - Подготовка инструментов и оборудования к работе. - Следование техническим чертежам и инструкциям. - Участие в испытаниях и проверках готовых конструкций. Требования: - Опыт работы в сфере монтажа металлоконструкций приветствуется. - Рассматриваем кандидатов, как с опытом от 1 года, так и без опыта с последующим обучением. - Техническое образование (желателен техникум или колледж). - Внимательность к деталям и ответственный подход к выполнению задач. Условия: - Официальное трудоустройство согласно ТК РФ. - График работы 5/2. - Обучение и развитие профессиональных навыков. - Предоставление спецодежды 4 раза в год. - Работа на современном оборудовании. Присоединяйтесь к нашей дружной команде профессионалов! Здесь вы сможете применить свои знания и навыки, повысить свой профессиональный уровень и получить стабильный доход. Приходите к нам, если вы готовы к новым вызовам и хотите развиваться в сфере монтажа металлоконструкций.","source":"SuperJob","published_at":"2026-06-19","employment":"Полный рабочий день","schedule":"","experience":"Без опыта","contacts":{"person":"","phones":["+7 (937) 18777XX"],"emails":[]}},{"id":"dc69e324-5e69-11f1-b4a8-cb523d2e9346","title":"Бригада монтажников металлоконструкций","company":"ООО \"Джобкарт\"","company_logo":null,"company_url":"https://trudvsem.ru/company/5147746474134","location":"Город Москва, г Москва, г Москва","salary":"160 000 – 185 000 руб.","url":"https://trudvsem.ru/vacancy/card/5147746474134/dc69e324-5e69-11f1-b4a8-cb523d2e9346","description":"Вакансия компании ООО ПСФ \"СТАЛЬКОН\" Производственно-строительная фирма, занимающаяся монтажом несущих металлоконструкций зданий и сооружений в Москве и по всей территории России с присутствием на строительном рынке более 30 лет. Обязанности: - Производить монтаж металлических конструкций согласно проектной документации и указаниям руководителя смены. - Подготавливать и располагать материалы и инструменты для монтажа. - Работать в команде с другими монтажниками, обеспечить соблюдение правил охраны труда и техники безопасности. - Выполнять работы в соответствии с техническими требованиями и стандартами компании. - Проводить внутренний контроль выполненных работ. - Обеспечивать качество и быстроту выполнения монтажных работ. Требования: - Опыт работы монтажником металлоконструкций не менее 2 лет. - Знание чертежей как преимущество, технических требований и стандартов по монтажу металлоконструкций. - Умение обращаться с профессиональным монтажным инструментом и техникой. - Ответственность, внимательность и умение работать в команде. - Готовность к вахтовой работе и командировкам. - Наличие удостоверения или соответствующих сертификатов является преимуществом. Условия: - Устройство в штат компании. - Вахтовый метод работы с полной занятостью. Возможна полная занятость (график согласовывается). - Место работы Москва и Московская область, возможна командировка на строительные объекты по РФ. - Компенсационный пакет в соответствии с ТК РФ и условиями вахты. - Предоставление жилья или компенсация за проживание на месте работы. - Обеспечение спецодеждой и СИЗ. - Двухразовое питание на объектах. - Премии по результатам работы и дополнительные выплаты по договоренности. Нас уважают за стабильные выплаты и интересные регулярные объекты!","source":"Роструд","published_at":"2026-06-02","employment":"","schedule":"Вахтовый метод","experience":"Опыт 5 лет","contacts":{"person":"Александр Александрович","phones":["+7 916 9230470"],"emails":[]}},{"id":"sj_52000180","title":"Монтажник по монтажу стальных и железобетонных конструкций","company":"","company_logo":null,"company_url":"","location":"Самара","salary":"168 000 – 200 000 руб.","url":"https://samara.superjob.ru/vakansii/montazhnik-po-montazhu-stalnyh-i-zhelezobetonnyh-konstrukcij-52000180.html","description":"Обязанности: • Производить монтаж сборных бетонных и железобетонных фундаментных блоков, монтаж стальных колонн; • Производить монтаж элементов панелей стальных пролетных строений и мостов, а также монтаж многослойных стеновых панелей (для зданий из легких металлоконструкций) и трехслойных панелей покрытия типа «Сэндвич». Требования: • Наличие удостоверения \"Монтажник по монтажу стальных и железобетонных конструкций\" с присвоенным разрядом (4-6 р); • Опыт работы в аналогичной должности (подтвержденный трудовой книжкой) не менее 1 года. Условия: • Работа на месторождениях в рамках инфраструктурных проектов ПАО «Газпром». Основные объекты: «Бованенково НГКМ»","source":"SuperJob","published_at":"2026-06-25","employment":"Полный рабочий день","schedule":"","experience":"От 1 года","contacts":{"person":"","phones":["+7 (911) 23221XX"],"emails":[]}},{"id":"d131a1b8-6e17-11f1-a0ef-714ad8f097f6","title":"Монтажник металлоконструкций дорожного ограждения","company":"ООО ПРЕДПРИЯТИЕ \"ПИК\"","company_logo":null,"company_url":"https://trudvsem.ru/company/1025202409429","location":"Нижегородская область, Нижегородская область, г Нижний Новгород, Тонкинская улица, дом: Д. 7А;офис/квартира: П.1;","salary":"100 000 – 150 000 руб.","url":"https://trudvsem.ru/vacancy/card/1025202409429/d131a1b8-6e17-11f1-a0ef-714ad8f097f6","description":"Присоединяйтесь к нашей команде и мы построим будущее вместе! Крупная, динамично развивающаяся компания лидер дорожной отрасли в России, приглашает в свою команду Монтажника металлоконструкций! Приветствуется опыт работы на аналогичных должностях: разнорабочий, сварщик, арматурщик, бетонщик. Наши условия: ВАХТОВЫЙ МЕТОД РАБОТЫ (24 рабочих дня / 6 выходных) Оформление в соответствии с ТК РФ 100% белая заработная плата (два раза в месяц, день в день) Компенсация питания 800-1000 рублей в день (суточные) Оплата билетов к месту работы и обратно Предоставление жилья в гостиницах Обеспечение новой спецодеждой Обеспечение всей необходимой техникой и современным инструментом Перспективы профессионального и карьерного роста! У нас Вы будете: Монтаж металлоконструкций, таких как: * Барьерные, пешеходные и тросовые ограждения * Надземные пешеходные переходы * Шумозащитные экраны От Вас необходимо: Минимальная квалификация Желание работать в надежной федеральной компании Присоединяйтесь к нашей команде и мы построим будущее вместе! Крупная, динамично развивающаяся компания лидер дорожной отрасли в России, приглашает в свою команду Монтажника металлоконструкций! Приветствуется опыт работы на аналогичных должностях: разнорабочий, сварщик, арматурщик, бетонщик. Образование не ниже среднего Опыт работы желателен, но есть возможность обучения с \"ноля\"","source":"Роструд","published_at":"2026-06-22","employment":"","schedule":"Вахтовый метод","experience":"","contacts":{"person":"Королькова Ульяна Леонидовна","phones":["+7(892) 005-51-95"],"emails":["hrpik@mail.ru","info@pik.com"]}},{"id":"sj_52018106","title":"Монтажник по монтажу стальных и железобетонных конструкций (Монтажник ЖБК)","company":"","company_logo":null,"company_url":"","location":"Уфа","salary":"168 000 – 200 000 руб.","url":"https://ufa.superjob.ru/vakansii/montazhnik-po-montazhu-stalnyh-i-zhelezobetonnyh-konstrukcij-52018106.html","description":"Присоединяйтесь к команде ООО «ГСП-6» — ключевой производственной компании группы «Газстройпром»! Мы занимаемся отсыпкой дорог и площадок, а также сваебойными работами в рамках крупных инфраструктурных проектов. Если вы ищете возможность развиваться в динамичной и профессиональной среде, где ценятся ваши навыки и идеи, готовы к новым вызовам и хотите внести свой вклад в развитие инфраструктуры страны, мы ждем именно вас! Давайте строить будущее вместе! Обязанности: • Производить монтаж сборных бетонных и железобетонных фундаментных блоков, монтаж стальных колонн; • Производить монтаж элементов панелей стальных пролетных строений и мостов, а также монтаж многослойных стеновых панелей (для зданий из легких металлоконструкций) и трехслойных панелей покрытия типа «Сэндвич». Требования: • Наличие удостоверения \"Монтажник по монтажу стальных и железобетонных конструкций\" с присвоенным разрядом; • Опыт работы в аналогичной должности (подтвержденный трудовой книжкой) не менее 1 года. Условия: • Работа на месторождениях в рамках инфраструктурных проектов ПАО «Газпром». Основные объекты: «Бованенково НГКМ»","source":"SuperJob","published_at":"2026-06-25","employment":"Полный рабочий день","schedule":"","experience":"От 1 года","contacts":{"person":"","phones":["+7 (919) 93912XX"],"emails":[]}},{"id":"7dfcc628-5f56-11f1-b27b-17d0e3ce57d4","title":"Монтажник МК / ЖБК","company":"ООО \"ТСИ\"","company_logo":null,"company_url":"https://trudvsem.ru/company/1179102024518","location":"Республика Крым, Крым республика, г Феодосия, Коктебель поселок городского типа, 5, Место работы Работника ООО ТРАНССТРОЙИНДУСТРИЯ, обособленное подразделение КОС Коктебель г. Феодосия, 298186, Крым респ., г. Феодосия, пгт. Коктебель, 5.","salary":"75 000 – 80 000 руб.","url":"https://trudvsem.ru/vacancy/card/1179102024518/7dfcc628-5f56-11f1-b27b-17d0e3ce57d4","description":"На объект \"Строительство очистных сооружений КОС Коктебель\" требуются монтажники металлоконструкций, сэндвич-панелей. Обязанности: сборка и монтаж металлоконструкций. График работы- 6/1. Суббота сокращенный рабочий день. На объект \"Строительство очистных сооружений КОС Коктебель\" требуются монтажники металлоконструкций, сэндвич-панелей. Обязанности: сборка и монтаж металлоконструкций.","source":"Роструд","published_at":"2026-06-04","employment":"","schedule":"Полный рабочий день","experience":"Опыт 1 год","contacts":{"person":"Россошанская Евгения Александровна","phones":["+7(978) 646-46-19"],"emails":["danilovich_iv@mail.ru"]}},{"id":"sj_52032211","title":"Сварщик-монтажник металлоконструкций","company":"","company_logo":null,"company_url":"","location":"Санкт-Петербург","salary":"от 120 000 руб.","url":"https://spb.superjob.ru/vakansii/svarschik-montazhnik-metallokonstrukcij-52032211.html","description":"ООО «ИнжТехСервис-СПб», приглашает соискателей на должность: Сварщик-Монтажник! Обязанности: Сварочные – монтажные работы на различных объектах г. Санкт-Петербурга и ЛО: • Создание прочных, устойчивых к нагрузкам, герметичных, плотных, чистовых сварных соединений, с отсутствием дефектов, для конструкций любой сложности — от трубопроводов различных диаметров, колонн и ферм, до подкрановых балок, путей, а также металла различного профиля, • Сварочные, сборочные, монтажные работы, с различными изделиями из металла, • Выполнение слесарных – монтажных - сборочных работ с безупречным качеством, • Умение читать эскизы и чертежи, оперативно оценивать ситуацию при выполнении и подготовки к работе, вырабатывать эффективные решения по выполнению необходимых задач и работ, • Умение работать с УШМ, а также с различным производственным инструментом, применяемом при изготовлении и ремонте металлоконструкций, • Навыки ручной дуговой сварки (РДС), полуавтоматической сварки, • Готовность иногда работать на высоте будет значительным преимуществом, • Опыт работы, знание норм и правил по ОТ и ТБ, ПБ, применение безопасных методов при выполнении, наружных и внутренних сварочных работ на различных объектах и производственных подразделениях. Требования: • Среднее-профессиональное образование; • Опыт работы: от 3 лет сварочные работы и будет плюсом дополнительно по монтажу металлоконструкций; • Навыки работы ручной и полуавтоматической сваркой; • Опыт по монтажу металлоконструкций; • Знание правил безопасной эксплуатации при проведении работ на различных объектах; • Ответственность, разумная инициативность; • Разъездной характер работы; • Будет преимуществом наличие Свидетельства НАКС об аттестации технологий сварки Условия: • Оформление согласно ТК РФ; • График работы – полный рабочий день; • Заработная плата –120 000 руб., премии по результатам работы; • Предоставление инструмента, спецодежды, • Необходимое обучение за счет работодателя; • Возможность карьерного роста; • Возможность дополнительных заработков на сверхурочных или аккордных работах; • Офис - Колпино (служба эксплуатации) ул. Финляндская, д.24Б, БЦ Северина. • Производство – Санкт-Петербург Октябрьская наб.50БО","source":"SuperJob","published_at":"2026-06-24","employment":"Полный рабочий день","schedule":"","experience":"От 3 лет","contacts":{"person":"","phones":["+7 (921) 87291XX"],"emails":[]}},{"id":"88d82055-6a1c-11f1-80e5-c96a2b2b5b73","title":"Сварщик-монтажник металлоконструкций","company":"ИНЖТЕХСЕРВИС-СПБ","company_logo":null,"company_url":"https://trudvsem.ru/company/1027700404797","location":"Город Санкт-Петербург, г Санкт-Петербург, Октябрьская набережная, 50, Санкт-Петербург, наб. Октябрьская, д. 50 литера м","salary":"от 120 000 руб.","url":"https://trudvsem.ru/vacancy/card/1027700404797/88d82055-6a1c-11f1-80e5-c96a2b2b5b73","description":"ООО «ИнжТехСервис-СПб», приглашает соискателей на должность: Сварщик-Монтажник! Обязанности: Сварочные – монтажные работы на различных объектах г. Санкт-Петербурга и ЛО: Создание прочных, устойчивых к нагрузкам, герметичных, плотных, чистовых сварных соединений, с отсутствием дефектов, для конструкций любой сложности — от трубопроводов различных диаметров, колонн и ферм, до подкрановых балок, путей, а также металла различного профиля, Сварочные, сборочные, монтажные работы, с различными изделиями из металла, Выполнение слесарных – монтажных - сборочных работ с безупречным качеством, Умение читать эскизы и чертежи, оперативно оценивать ситуацию при выполнении и подготовки к работе, вырабатывать эффективные решения по выполнению необходимых задач и работ, Умение работать с УШМ, а также с различным производственным инструментом, применяемом при изготовлении и ремонте металлоконструкций, Навыки ручной дуговой сварки (РДС), полуавтоматической сварки, Готовность иногда работать на высоте будет значительным преимуществом, Опыт работы, знание норм и правил по ОТ и ТБ, ПБ, применение безопасных методов при выполнении, наружных и внутренних сварочных работ на различных объектах и производственных подразделениях. Требования: Среднее-профессиональное образование; Опыт работы: от 3 лет сварочные работы и будет плюсом дополнительно по монтажу металлоконструкций; Навыки работы ручной и полуавтоматической сваркой; Опыт по монтажу металлоконструкций; Знание правил безопасной эксплуатации при проведении работ на различных объектах; Ответственность, разумная инициативность; Разъездной характер работы; Будет преимуществом наличие Свидетельства НАКС об аттестации технологий сварки Условия: Оформление согласно ТК РФ; График работы – полный рабочий день; Заработная плата –120 000 руб., премии по результатам работы; Предоставление инструмента, спецодежды, Необходимое обучение за счет работодателя; Возможность карьерного роста; Возможность дополнительных заработков на сверхурочных или аккордных работах; Офис - Колпино (служба эксплуатации) ул. Финляндская, д.24Б, БЦ Северина. Производство – Санкт-Петербург Октябрьская наб.50БО","source":"Роструд","published_at":"2026-06-17","employment":"","schedule":"Полный рабочий день","experience":"Опыт 3 года","contacts":{"person":"Александра Дягтеренко","phones":["+7 921 8729160"],"emails":["hr-its@maribelle.ru"]}},{"id":"sj_52042111","title":"Монтажник по монтажу стальных и железобетонных конструкций 4,5,6 разряда (Египет)","company":"","company_logo":null,"company_url":"","location":"Краснодар","salary":"180 000 – 220 000 руб.","url":"https://krasnodar.superjob.ru/vakansii/montazhnik-po-montazhu-stalnyh-i-zhelezobetonnyh-konstrukcij-4-52042111.html","description":"ООО \"Трест РосСЭМ\" приглашает на работу монтажника по монтажу стальных и железобетонных конструкций на зарубежный проект по строительству АЭС в Египте! Обязанности: • Осуществление строительно-монтажных работ при строительстве АЭС. Требования: • Наличие квалификационного удостоверения; • Документально подтвержденный стаж работы не менее 1,5-2 лет. Условия: • Место работы – Арабская Республика Египет, АЭС строится на побережье Средиземного моря, в 135 км на запад от г. Александрия, в 5,8 км на северо-восток от г. Эль-Дабаа; • Работа по графику (4,5/1,5 мес.), 6-дневная рабочая неделя с одним выходным днем; • Оплачиваемый отпуск – 37 дней (28 - основной, 9 - дополнительный); • Проживание в жилом поселке (коммунальная квартира, меблированная, с бытовой техникой), предоставляется работодателем; • Бесплатное трехразовое питание в рабочие дни; • Проезд к месту работы и месту отпуска в РФ до г. Москва два раза в год оплачивается работодателем; • Компенсация стоимости прохождения медицинского осмотра согласно ЛНА организации; • ДМС, Медицинское обслуживание на площадке (собственные врачи); • Страховка для выезжающих за рубеж; • Выплата подъемных согласно ЛНА организации; • Оформление по ТК РФ; • Выдача СИЗ, спецодежды; • Приглашение на работу, визовое обеспечение; • Годовое премирование по результатам эффективности; • Работа в стабильной, социально-ответственной компании; • Возможности профессионального роста и развития; • Участие в решении амбициозных проектов и задач в команде профессионалов; • Корпоративные мероприятия: тимбилдинги, спортивные активности и отраслевые соревнования; • Волонтерские движения. Мероприятия для сотрудников и их семей; • Финансовая помощь в особых жизненных ситуациях.","source":"SuperJob","published_at":"2026-06-22","employment":"Полный рабочий день","schedule":"","experience":"От 1 года","contacts":{"person":"","phones":["+7 (985) 70458XX"],"emails":[]}},{"id":"a1f0cb44-6fcc-11f1-95ea-51868dea615e","title":"Монтажник по монтажу металлоконструкций 3-5 разряда","company":"ООО \"Джейкет.ру\"","company_logo":null,"company_url":"https://trudvsem.ru/company/5147746474134","location":"Город Москва, г Москва, Южнопортовая улица, Москва, Южнопортовая улица","salary":"от 175 000 руб.","url":"https://trudvsem.ru/vacancy/card/5147746474134/a1f0cb44-6fcc-11f1-95ea-51868dea615e","description":"Вакансия компании: ООО \"Мост\" Стабильная строительная компания ООО \"МОСТ\" Условия Работа вахтовым методом - график 30/30 в г. Москва; проживание в общежитии, спецодежда, проезд за счет организации, Официальное трудоустройство; З/п Белая на карту Требования Опыт работы в трудовой книжке от 1 года Наличие удостоверения монтажника стальных и железобетонных конструкций от 3 разряда обязательно Обязанности Выполнение монтажных работ металлоконструкций на высоте; Гражданское строительство.","source":"Роструд","published_at":"2026-06-24","employment":"","schedule":"Вахтовый метод","experience":"Опыт 4 года","contacts":{"person":"Оксана Владимировна","phones":["+7 930 3195822"],"emails":[]}}],"total":103,"pages":8,"page":0}